Project 1: Exploratory Data Analysis
…
##                lost.teeth od.death.rate    n.deaths cig.use.rate       cig.n
## lost.teeth     1.00000000    0.31049789 -0.07344044    0.8181773 -0.30835903
## od.death.rate  0.31049789    1.00000000  0.27355990    0.2096280 -0.09268676
## n.deaths      -0.07344044    0.27355990  1.00000000   -0.1773431  0.40688481
## cig.use.rate   0.81817733    0.20962800 -0.17734312    1.0000000 -0.35522514
## cig.n         -0.30835903   -0.09268676  0.40688481   -0.3552251  1.00000000

fulldata <- fulldata %>% mutate(abuse.cat = ifelse(od.death.rate > 
    20, "high", ifelse(od.death.rate <= 20 & od.death.rate <= 
    10, "med", "low")))
fulldata %>% group_by(abuse.cat, Location) %>% summarize(drugs.n = (1/od.death.rate) * 
    n.deaths)

## # A tibble: 49 x 3
## # Groups:   abuse.cat [3]
##    abuse.cat Location      drugs.n
##    <chr>     <chr>           <dbl>
##  1 high      Arizona         68.1 
##  2 high      Connecticut     35.4 
##  3 high      Delaware         9.16
##  4 high      Florida        199.  
##  5 high      Indiana         63.6 
##  6 high      Kentucky        42.4 
##  7 high      Louisiana       45.7 
##  8 high      Maine           12.3 
##  9 high      Maryland        61.6 
## 10 high      Massachusetts   67.5 
## # … with 39 more rows
…
